{
  "resource": [
    {
      "id": 1,
      "content": "Display Planogram (LED-Ess-Tor)_Store LED Klub_Ukuran Rak Wajib diisi",
      "type": "group",
      "category": "Display",
      "parent_id": null,
      "is_parent": 1,
      "status": 1,
      "is_require": 0,
      "group_category": "display",
      "selection": [],
      "child": [
        {
          "id": 2,
          "content": "Keterangan",
          "type": "checklist",
          "category": "Display",
          "parent_id": 1,
          "is_parent": 0,
          "status": 1,
          "is_require": 0,
          "group_category": null,
          "selection": [
            {
              "id": 1,
              "content": "Maintenance Display",
              "question_id": 2
            },
            {
              "id": 2,
              "content": "Tidak Bisa Didisplay",
              "question_id": 2
            }
          ],
          "child": []
        },
        {
          "id": 3,
          "content": "Result",
          "type": "choice",
          "category": "Display",
          "parent_id": 1,
          "is_parent": 0,
          "status": 1,
          "is_require": 0,
          "group_category": null,
          "selection": [
            {
              "id": 3,
              "content": "Sukses",
              "question_id": 3
            },
            {
              "id": 4,
              "content": "Toko Tutup",
              "question_id": 3
            },
            {
              "id": 5,
              "content": "Toko Tidak Mengijinkan",
              "question_id": 3
            },
            {
              "id": 6,
              "content": "Space Tidak Cukup",
              "question_id": 3
            }
          ],
          "child": []
        },
        {
          "id": 4,
          "content": "Ukuran Panjang Display (m)",
          "type": "dropdown",
          "category": "Display",
          "parent_id": 1,
          "is_parent": 0,
          "status": 1,
          "is_require": 0,
          "group_category": null,
          "selection": [
            {
              "id": 7,
              "content": "0 Meter",
              "question_id": 4
            },
            {
              "id": 8,
              "content": "1 Meter",
              "question_id": 4
            },
            {
              "id": 9,
              "content": "2 Meter",
              "question_id": 4
            },
            {
              "id": 10,
              "content": "3 Meter",
              "question_id": 4
            },
            {
              "id": 11,
              "content": "4 Meter",
              "question_id": 4
            },
            {
              "id": 12,
              "content": "5 Meter",
              "question_id": 4
            },
            {
              "id": 13,
              "content": "6 Meter",
              "question_id": 4
            },
            {
              "id": 14,
              "content": "7 Meter",
              "question_id": 4
            },
            {
              "id": 15,
              "content": "8 Meter",
              "question_id": 4
            },
            {
              "id": 16,
              "content": "9 Meter",
              "question_id": 4
            },
            {
              "id": 17,
              "content": "10 Meter",
              "question_id": 4
            },
            {
              "id": 18,
              "content": "11 Meter",
              "question_id": 4
            },
            {
              "id": 19,
              "content": "12 Meter",
              "question_id": 4
            },
            {
              "id": 20,
              "content": "13 Meter",
              "question_id": 4
            },
            {
              "id": 21,
              "content": "14 Meter",
              "question_id": 4
            },
            {
              "id": 22,
              "content": "15 Meter",
              "question_id": 4
            }
          ],
          "child": []
        },
        {
          "id": 5,
          "content": "Ukuran Lebar Display (m)",
          "type": "dropdown",
          "category": "Display",
          "parent_id": 1,
          "is_parent": 0,
          "status": 1,
          "is_require": 0,
          "group_category": null,
          "selection": [
            {
              "id": 23,
              "content": "0 Meter",
              "question_id": 5
            },
            {
              "id": 24,
              "content": "1 Meter",
              "question_id": 5
            },
            {
              "id": 25,
              "content": "2 Meter",
              "question_id": 5
            },
            {
              "id": 26,
              "content": "3 Meter",
              "question_id": 5
            },
            {
              "id": 27,
              "content": "4 Meter",
              "question_id": 5
            },
            {
              "id": 28,
              "content": "5 Meter",
              "question_id": 5
            },
            {
              "id": 29,
              "content": "6 Meter",
              "question_id": 5
            },
            {
              "id": 30,
              "content": "7 Meter",
              "question_id": 5
            },
            {
              "id": 31,
              "content": "8 Meter",
              "question_id": 5
            },
            {
              "id": 32,
              "content": "9 Meter",
              "question_id": 5
            },
            {
              "id": 33,
              "content": "10 Meter",
              "question_id": 5
            },
            {
              "id": 34,
              "content": "11 Meter",
              "question_id": 5
            },
            {
              "id": 35,
              "content": "12 Meter",
              "question_id": 5
            },
            {
              "id": 36,
              "content": "13 Meter",
              "question_id": 5
            },
            {
              "id": 37,
              "content": "14 Meter",
              "question_id": 5
            },
            {
              "id": 38,
              "content": "15 Meter",
              "question_id": 5
            }
          ],
          "child": []
        },
        {
          "id": 6,
          "content": "Pengambilan Dokumentasi Sebelum",
          "type": "images",
          "category": "Display",
          "parent_id": 1,
          "is_parent": 0,
          "status": 1,
          "is_require": 0,
          "group_category": null,
          "selection": [],
          "child": []
        },
        {
          "id": 7,
          "content": "Pengambilan Dokumentasi Sesudah",
          "type": "images",
          "category": "Display",
          "parent_id": 1,
          "is_parent": 0,
          "status": 1,
          "is_require": 0,
          "group_category": null,
          "selection": [],
          "child": []
        }
      ]
    },
    {
      "id": 8,
      "content": "Display Planogram (Porf & Home)_Store LED Klub_Ukuran Rak Wajib diisi",
      "type": "group",
      "category": "Display",
      "parent_id": null,
      "is_parent": 1,
      "status": 1,
      "is_require": 0,
      "group_category": "display",
      "selection": [],
      "child": [
        {
          "id": 9,
          "content": "Keterangan",
          "type": "dropdown",
          "category": "Display",
          "parent_id": 8,
          "is_parent": 0,
          "status": 1,
          "is_require": 0,
          "group_category": null,
          "selection": [
            {
              "id": 39,
              "content": "Maintenance Display",
              "question_id": 9
            },
            {
              "id": 40,
              "content": "Tidak Bisa Didisplay",
              "question_id": 9
            }
          ],
          "child": []
        },
        {
          "id": 10,
          "content": "Result",
          "type": "dropdown",
          "category": "Display",
          "parent_id": 8,
          "is_parent": 0,
          "status": 1,
          "is_require": 0,
          "group_category": null,
          "selection": [
            {
              "id": 41,
              "content": "Sukses",
              "question_id": 10
            },
            {
              "id": 42,
              "content": "Toko Tutup",
              "question_id": 10
            },
            {
              "id": 43,
              "content": "Toko Tidak Mengijinkan",
              "question_id": 10
            },
            {
              "id": 44,
              "content": "Space Tidak Cukup",
              "question_id": 10
            }
          ],
          "child": []
        },
        {
          "id": 11,
          "content": "Ukuran Panjang Display (m)",
          "type": "dropdown",
          "category": "Display",
          "parent_id": 8,
          "is_parent": 0,
          "status": 1,
          "is_require": 0,
          "group_category": null,
          "selection": [
            {
              "id": 45,
              "content": "0 Meter",
              "question_id": 11
            },
            {
              "id": 46,
              "content": "1 Meter",
              "question_id": 11
            },
            {
              "id": 47,
              "content": "2 Meter",
              "question_id": 11
            },
            {
              "id": 48,
              "content": "3 Meter",
              "question_id": 11
            },
            {
              "id": 49,
              "content": "4 Meter",
              "question_id": 11
            },
            {
              "id": 50,
              "content": "5 Meter",
              "question_id": 11
            },
            {
              "id": 51,
              "content": "6 Meter",
              "question_id": 11
            },
            {
              "id": 52,
              "content": "7 Meter",
              "question_id": 11
            },
            {
              "id": 53,
              "content": "8 Meter",
              "question_id": 11
            },
            {
              "id": 54,
              "content": "9 Meter",
              "question_id": 11
            },
            {
              "id": 55,
              "content": "10 Meter",
              "question_id": 11
            },
            {
              "id": 56,
              "content": "11 Meter",
              "question_id": 11
            },
            {
              "id": 57,
              "content": "12 Meter",
              "question_id": 11
            },
            {
              "id": 58,
              "content": "13 Meter",
              "question_id": 11
            },
            {
              "id": 59,
              "content": "14 Meter",
              "question_id": 11
            },
            {
              "id": 60,
              "content": "15 Meter",
              "question_id": 11
            }
          ],
          "child": []
        },
        {
          "id": 12,
          "content": "Ukuran Lebar Display (m)",
          "type": "dropdown",
          "category": "Display",
          "parent_id": 8,
          "is_parent": 0,
          "status": 1,
          "is_require": 0,
          "group_category": null,
          "selection": [
            {
              "id": 61,
              "content": "0 Meter",
              "question_id": 12
            },
            {
              "id": 62,
              "content": "1 Meter",
              "question_id": 12
            },
            {
              "id": 63,
              "content": "2 Meter",
              "question_id": 12
            },
            {
              "id": 64,
              "content": "3 Meter",
              "question_id": 12
            },
            {
              "id": 65,
              "content": "4 Meter",
              "question_id": 12
            },
            {
              "id": 66,
              "content": "5 Meter",
              "question_id": 12
            },
            {
              "id": 67,
              "content": "6 Meter",
              "question_id": 12
            },
            {
              "id": 68,
              "content": "7 Meter",
              "question_id": 12
            },
            {
              "id": 69,
              "content": "8 Meter",
              "question_id": 12
            },
            {
              "id": 70,
              "content": "9 Meter",
              "question_id": 12
            },
            {
              "id": 71,
              "content": "10 Meter",
              "question_id": 12
            },
            {
              "id": 72,
              "content": "11 Meter",
              "question_id": 12
            },
            {
              "id": 73,
              "content": "12 Meter",
              "question_id": 12
            },
            {
              "id": 74,
              "content": "13 Meter",
              "question_id": 12
            },
            {
              "id": 75,
              "content": "14 Meter",
              "question_id": 12
            },
            {
              "id": 76,
              "content": "15 Meter",
              "question_id": 12
            }
          ],
          "child": []
        },
        {
          "id": 13,
          "content": "Pengambilan Dokumentasi Sebelum",
          "type": "images",
          "category": "Display",
          "parent_id": 8,
          "is_parent": 0,
          "status": 1,
          "is_require": 0,
          "group_category": null,
          "selection": [],
          "child": []
        },
        {
          "id": 14,
          "content": "Pengambilan Dokumentasi Sesudah",
          "type": "images",
          "category": "Display",
          "parent_id": 8,
          "is_parent": 0,
          "status": 1,
          "is_require": 0,
          "group_category": null,
          "selection": [],
          "child": []
        }
      ]
    },
    {
      "id": 15,
      "content": "Share of Space : Philips",
      "type": "group",
      "category": "Share of Space",
      "parent_id": null,
      "is_parent": 1,
      "status": 1,
      "is_require": 0,
      "group_category": "aktifitas",
      "selection": [],
      "child": [
        {
          "id": 16,
          "content": "Share of Space %",
          "type": "number",
          "category": "Share of Space",
          "parent_id": 15,
          "is_parent": 0,
          "status": 1,
          "is_require": 0,
          "group_category": null,
          "selection": [],
          "child": []
        },
        {
          "id": 17,
          "content": "Aktifitas Promo",
          "type": "text",
          "category": "Share of Space",
          "parent_id": 15,
          "is_parent": 0,
          "status": 1,
          "is_require": 0,
          "group_category": null,
          "selection": [],
          "child": []
        },
        {
          "id": 18,
          "content": "Remarks",
          "type": "dropdown",
          "category": "Share of Space",
          "parent_id": 15,
          "is_parent": 0,
          "status": 1,
          "is_require": 0,
          "group_category": null,
          "selection": [
            {
              "id": 77,
              "content": "End User",
              "question_id": 18
            },
            {
              "id": 78,
              "content": "Store",
              "question_id": 18
            }
          ],
          "child": []
        }
      ]
    },
    {
      "id": 19,
      "content": "Share of Space : Hannochs",
      "type": "group",
      "category": "Share of Space",
      "parent_id": null,
      "is_parent": 1,
      "status": 1,
      "is_require": 0,
      "group_category": "aktifitas",
      "selection": [],
      "child": [
        {
          "id": 20,
          "content": "Share of Space %",
          "type": "number",
          "category": "Share of Space",
          "parent_id": 19,
          "is_parent": 0,
          "status": 1,
          "is_require": 0,
          "group_category": null,
          "selection": [],
          "child": []
        },
        {
          "id": 21,
          "content": "Aktifitas Promo",
          "type": "text",
          "category": "Share of Space",
          "parent_id": 19,
          "is_parent": 0,
          "status": 1,
          "is_require": 0,
          "group_category": null,
          "selection": [],
          "child": []
        },
        {
          "id": 22,
          "content": "Remarks",
          "type": "dropdown",
          "category": "Share of Space",
          "parent_id": 19,
          "is_parent": 0,
          "status": 1,
          "is_require": 0,
          "group_category": null,
          "selection": [
            {
              "id": 79,
              "content": "End User",
              "question_id": 22
            },
            {
              "id": 80,
              "content": "Store",
              "question_id": 22
            }
          ],
          "child": []
        }
      ]
    },
    {
      "id": 23,
      "content": "Share of Space : panasonic",
      "type": "group",
      "category": "Share of Space",
      "parent_id": null,
      "is_parent": 1,
      "status": 1,
      "is_require": 0,
      "group_category": "aktifitas",
      "selection": [],
      "child": [
        {
          "id": 24,
          "content": "Share of Space %",
          "type": "number",
          "category": "Share of Space",
          "parent_id": 23,
          "is_parent": 0,
          "status": 1,
          "is_require": 0,
          "group_category": null,
          "selection": [],
          "child": []
        },
        {
          "id": 25,
          "content": "Aktifitas Promo",
          "type": "text",
          "category": "Share of Space",
          "parent_id": 23,
          "is_parent": 0,
          "status": 1,
          "is_require": 0,
          "group_category": null,
          "selection": [],
          "child": []
        },
        {
          "id": 26,
          "content": "Remarks",
          "type": "dropdown",
          "category": "Share of Space",
          "parent_id": 23,
          "is_parent": 0,
          "status": 1,
          "is_require": 0,
          "group_category": null,
          "selection": [
            {
              "id": 81,
              "content": "End User",
              "question_id": 26
            },
            {
              "id": 82,
              "content": "Store",
              "question_id": 26
            }
          ],
          "child": []
        }
      ]
    },
    {
      "id": 27,
      "content": "Share of Space : In-Lite",
      "type": "group",
      "category": "Share of Space",
      "parent_id": null,
      "is_parent": 1,
      "status": 1,
      "is_require": 0,
      "group_category": "sos",
      "selection": [],
      "child": [
        {
          "id": 28,
          "content": "Share of Space %",
          "type": "number",
          "category": "Share of Space",
          "parent_id": 27,
          "is_parent": 0,
          "status": 1,
          "is_require": 0,
          "group_category": null,
          "selection": [],
          "child": []
        },
        {
          "id": 29,
          "content": "Aktifitas Promo",
          "type": "text",
          "category": "Share of Space",
          "parent_id": 27,
          "is_parent": 0,
          "status": 1,
          "is_require": 0,
          "group_category": null,
          "selection": [],
          "child": []
        },
        {
          "id": 30,
          "content": "Remarks",
          "type": "dropdown",
          "category": "Share of Space",
          "parent_id": 27,
          "is_parent": 0,
          "status": 1,
          "is_require": 0,
          "group_category": null,
          "selection": [
            {
              "id": 83,
              "content": "End User",
              "question_id": 30
            },
            {
              "id": 84,
              "content": "Store",
              "question_id": 30
            }
          ],
          "child": []
        }
      ]
    },
    {
      "id": 31,
      "content": "Share of Space : Renesola",
      "type": "group",
      "category": "Share of Space",
      "parent_id": null,
      "is_parent": 1,
      "status": 1,
      "is_require": 0,
      "group_category": "sos",
      "selection": [],
      "child": [
        {
          "id": 32,
          "content": "Share of Space %",
          "type": "number",
          "category": "Share of Space",
          "parent_id": 31,
          "is_parent": 0,
          "status": 1,
          "is_require": 0,
          "group_category": null,
          "selection": [],
          "child": []
        },
        {
          "id": 33,
          "content": "Aktifitas Promo",
          "type": "text",
          "category": "Share of Space",
          "parent_id": 31,
          "is_parent": 0,
          "status": 1,
          "is_require": 0,
          "group_category": null,
          "selection": [],
          "child": []
        },
        {
          "id": 34,
          "content": "Remarks",
          "type": "dropdown",
          "category": "Share of Space",
          "parent_id": 31,
          "is_parent": 0,
          "status": 1,
          "is_require": 0,
          "group_category": null,
          "selection": [
            {
              "id": 85,
              "content": "End User",
              "question_id": 34
            },
            {
              "id": 86,
              "content": "Store",
              "question_id": 34
            }
          ],
          "child": []
        }
      ]
    },
    {
      "id": 35,
      "content": "Share of Space : OPPLE",
      "type": "group",
      "category": "Share of Space",
      "parent_id": null,
      "is_parent": 1,
      "status": 1,
      "is_require": 0,
      "group_category": "sos",
      "selection": [],
      "child": [
        {
          "id": 36,
          "content": "Share of Space %",
          "type": "number",
          "category": "Share of Space",
          "parent_id": 35,
          "is_parent": 0,
          "status": 1,
          "is_require": 0,
          "group_category": null,
          "selection": [],
          "child": []
        },
        {
          "id": 37,
          "content": "Aktifitas Promo",
          "type": "text",
          "category": "Share of Space",
          "parent_id": 35,
          "is_parent": 0,
          "status": 1,
          "is_require": 0,
          "group_category": null,
          "selection": [],
          "child": []
        },
        {
          "id": 38,
          "content": "Remarks",
          "type": "dropdown",
          "category": "Share of Space",
          "parent_id": 35,
          "is_parent": 0,
          "status": 1,
          "is_require": 0,
          "group_category": null,
          "selection": [
            {
              "id": 87,
              "content": "End User",
              "question_id": 38
            },
            {
              "id": 88,
              "content": "Store",
              "question_id": 38
            }
          ],
          "child": []
        }
      ]
    },
    {
      "id": 39,
      "content": "Share of Space : Other Brand (Merk Cina Lainnya)",
      "type": "group",
      "category": "Share of Space",
      "parent_id": null,
      "is_parent": 1,
      "status": 1,
      "is_require": 0,
      "group_category": "sos",
      "selection": [],
      "child": [
        {
          "id": 40,
          "content": "Share of Space %",
          "type": "number",
          "category": "Share of Space",
          "parent_id": 39,
          "is_parent": 0,
          "status": 1,
          "is_require": 0,
          "group_category": null,
          "selection": [],
          "child": []
        },
        {
          "id": 41,
          "content": "Aktifitas Promo",
          "type": "text",
          "category": "Share of Space",
          "parent_id": 39,
          "is_parent": 0,
          "status": 1,
          "is_require": 0,
          "group_category": null,
          "selection": [],
          "child": []
        },
        {
          "id": 42,
          "content": "Remarks",
          "type": "dropdown",
          "category": "Share of Space",
          "parent_id": 39,
          "is_parent": 0,
          "status": 1,
          "is_require": 0,
          "group_category": null,
          "selection": [
            {
              "id": 89,
              "content": "End User",
              "question_id": 42
            },
            {
              "id": 90,
              "content": "Store",
              "question_id": 42
            }
          ],
          "child": []
        }
      ]
    },
    {
      "id": 43,
      "content": "POSM Downlight Eridani_Display Acrylic (INDOOR)",
      "type": "group",
      "category": "POSM",
      "parent_id": null,
      "is_parent": 1,
      "status": 1,
      "is_require": 0,
      "group_category": "posm",
      "selection": [],
      "child": [
        {
          "id": 44,
          "content": "Ketersediaan",
          "type": "dropdown",
          "category": "POSM",
          "parent_id": 43,
          "is_parent": 0,
          "status": 1,
          "is_require": 0,
          "group_category": null,
          "selection": [
            {
              "id": 91,
              "content": "Tersedia",
              "question_id": 44
            },
            {
              "id": 92,
              "content": "Tidak",
              "question_id": 44
            }
          ],
          "child": []
        },
        {
          "id": 45,
          "content": "Kondisi",
          "type": "dropdown",
          "category": "POSM",
          "parent_id": 43,
          "is_parent": 0,
          "status": 1,
          "is_require": 0,
          "group_category": null,
          "selection": [
            {
              "id": 93,
              "content": "Layak",
              "question_id": 45
            },
            {
              "id": 94,
              "content": "Tidak Layak",
              "question_id": 45
            },
            {
              "id": 95,
              "content": "Ganti Baru",
              "question_id": 45
            }
          ],
          "child": []
        },
        {
          "id": 46,
          "content": "Aktifitas",
          "type": "dropdown",
          "category": "POSM",
          "parent_id": 43,
          "is_parent": 0,
          "status": 1,
          "is_require": 0,
          "group_category": null,
          "selection": [
            {
              "id": 96,
              "content": "Cek",
              "question_id": 46
            },
            {
              "id": 97,
              "content": "Pemasangan Baru",
              "question_id": 46
            }
          ],
          "child": []
        },
        {
          "id": 47,
          "content": "Jumlah Pemasangan",
          "type": "number",
          "category": "POSM",
          "parent_id": 43,
          "is_parent": 0,
          "status": 1,
          "is_require": 0,
          "group_category": null,
          "selection": [],
          "child": []
        },
        {
          "id": 48,
          "content": "Pengambilan Dokumentasi",
          "type": "images",
          "category": "POSM",
          "parent_id": 43,
          "is_parent": 0,
          "status": 1,
          "is_require": 0,
          "group_category": null,
          "selection": [],
          "child": []
        }
      ]
    },
    {
      "id": 52,
      "content": "POSM Downlight Eridani_Poster (INDOOR)",
      "type": "group",
      "category": "POSM",
      "parent_id": null,
      "is_parent": 1,
      "status": 1,
      "is_require": 0,
      "group_category": "posm",
      "selection": [],
      "child": [
        {
          "id": 53,
          "content": "Ketersediaan",
          "type": "dropdown",
          "category": "POSM",
          "parent_id": 52,
          "is_parent": 0,
          "status": 1,
          "is_require": 0,
          "group_category": null,
          "selection": [
            {
              "id": 105,
              "content": "Tersedia",
              "question_id": 53
            },
            {
              "id": 106,
              "content": "Tidak",
              "question_id": 53
            }
          ],
          "child": []
        },
        {
          "id": 54,
          "content": "Kondisi",
          "type": "dropdown",
          "category": "POSM",
          "parent_id": 52,
          "is_parent": 0,
          "status": 1,
          "is_require": 0,
          "group_category": null,
          "selection": [
            {
              "id": 107,
              "content": "Layak",
              "question_id": 54
            },
            {
              "id": 108,
              "content": "Tidak Layak",
              "question_id": 54
            },
            {
              "id": 109,
              "content": "Ganti Baru",
              "question_id": 54
            }
          ],
          "child": []
        },
        {
          "id": 55,
          "content": "Aktifitas",
          "type": "dropdown",
          "category": "POSM",
          "parent_id": 52,
          "is_parent": 0,
          "status": 1,
          "is_require": 0,
          "group_category": null,
          "selection": [
            {
              "id": 110,
              "content": "Cek",
              "question_id": 55
            },
            {
              "id": 111,
              "content": "Pemasangan Baru",
              "question_id": 55
            }
          ],
          "child": []
        },
        {
          "id": 56,
          "content": "Jumlah Pemasangan",
          "type": "number",
          "category": "POSM",
          "parent_id": 52,
          "is_parent": 0,
          "status": 1,
          "is_require": 0,
          "group_category": null,
          "selection": [],
          "child": []
        },
        {
          "id": 57,
          "content": "Pengambilan Dokumentasi",
          "type": "images",
          "category": "POSM",
          "parent_id": 52,
          "is_parent": 0,
          "status": 1,
          "is_require": 0,
          "group_category": null,
          "selection": [],
          "child": []
        }
      ]
    },
    {
      "id": 58,
      "content": "POSM Downlight Eridani_Shopblind (OUTDOOR)",
      "type": "group",
      "category": "POSM",
      "parent_id": null,
      "is_parent": 1,
      "status": 1,
      "is_require": 0,
      "group_category": "posm",
      "selection": [],
      "child": [
        {
          "id": 59,
          "content": "Ketersediaan",
          "type": "dropdown",
          "category": "POSM",
          "parent_id": 58,
          "is_parent": 0,
          "status": 1,
          "is_require": 0,
          "group_category": null,
          "selection": [
            {
              "id": 112,
              "content": "Tersedia",
              "question_id": 59
            },
            {
              "id": 113,
              "content": "Tidak",
              "question_id": 59
            }
          ],
          "child": []
        },
        {
          "id": 60,
          "content": "Kondisi",
          "type": "dropdown",
          "category": "POSM",
          "parent_id": 58,
          "is_parent": 0,
          "status": 1,
          "is_require": 0,
          "group_category": null,
          "selection": [
            {
              "id": 114,
              "content": "Layak",
              "question_id": 60
            },
            {
              "id": 115,
              "content": "Tidak Layak",
              "question_id": 60
            },
            {
              "id": 116,
              "content": "Ganti Baru",
              "question_id": 60
            }
          ],
          "child": []
        },
        {
          "id": 61,
          "content": "Aktifitas",
          "type": "dropdown",
          "category": "POSM",
          "parent_id": 58,
          "is_parent": 0,
          "status": 1,
          "is_require": 0,
          "group_category": null,
          "selection": [
            {
              "id": 117,
              "content": "Cek",
              "question_id": 61
            },
            {
              "id": 118,
              "content": "Pemasangan Baru",
              "question_id": 61
            }
          ],
          "child": []
        },
        {
          "id": 62,
          "content": "Jumlah Pemasangan",
          "type": "number",
          "category": "POSM",
          "parent_id": 58,
          "is_parent": 0,
          "status": 1,
          "is_require": 0,
          "group_category": null,
          "selection": [],
          "child": []
        },
        {
          "id": 63,
          "content": "Pengambilan Dokumentasi",
          "type": "images",
          "category": "POSM",
          "parent_id": 58,
          "is_parent": 0,
          "status": 1,
          "is_require": 0,
          "group_category": null,
          "selection": [],
          "child": []
        }
      ]
    },
    {
      "id": 64,
      "content": "POSM Downlight Eridani_Flyer (INDOOR)",
      "type": "group",
      "category": "POSM",
      "parent_id": null,
      "is_parent": 1,
      "status": 1,
      "is_require": 0,
      "group_category": "posm",
      "selection": [],
      "child": [
        {
          "id": 65,
          "content": "Ketersediaan",
          "type": "dropdown",
          "category": "POSM",
          "parent_id": 64,
          "is_parent": 0,
          "status": 1,
          "is_require": 0,
          "group_category": null,
          "selection": [
            {
              "id": 119,
              "content": "Tersedia",
              "question_id": 65
            },
            {
              "id": 120,
              "content": "Tidak",
              "question_id": 65
            }
          ],
          "child": []
        },
        {
          "id": 66,
          "content": "Kondisi",
          "type": "dropdown",
          "category": "POSM",
          "parent_id": 64,
          "is_parent": 0,
          "status": 1,
          "is_require": 0,
          "group_category": null,
          "selection": [
            {
              "id": 121,
              "content": "Layak",
              "question_id": 66
            },
            {
              "id": 122,
              "content": "Tidak Layak",
              "question_id": 66
            },
            {
              "id": 123,
              "content": "Ganti Baru",
              "question_id": 66
            }
          ],
          "child": []
        },
        {
          "id": 67,
          "content": "Aktifitas",
          "type": "dropdown",
          "category": "POSM",
          "parent_id": 64,
          "is_parent": 0,
          "status": 1,
          "is_require": 0,
          "group_category": null,
          "selection": [
            {
              "id": 124,
              "content": "Cek",
              "question_id": 67
            },
            {
              "id": 125,
              "content": "Pemasangan Baru",
              "question_id": 67
            }
          ],
          "child": []
        },
        {
          "id": 68,
          "content": "Jumlah Pemasangan",
          "type": "number",
          "category": "POSM",
          "parent_id": 64,
          "is_parent": 0,
          "status": 1,
          "is_require": 0,
          "group_category": null,
          "selection": [],
          "child": []
        },
        {
          "id": 69,
          "content": "Pengambilan Dokumentasi",
          "type": "images",
          "category": "POSM",
          "parent_id": 64,
          "is_parent": 0,
          "status": 1,
          "is_require": 0,
          "group_category": null,
          "selection": [],
          "child": []
        }
      ]
    },
    {
      "id": 70,
      "content": "POSM Downlight Eridani_Katalog (INDOOR)",
      "type": "group",
      "category": "POSM",
      "parent_id": null,
      "is_parent": 1,
      "status": 1,
      "is_require": 0,
      "group_category": "posm",
      "selection": [],
      "child": [
        {
          "id": 71,
          "content": "Ketersediaan",
          "type": "dropdown",
          "category": "POSM",
          "parent_id": 70,
          "is_parent": 0,
          "status": 1,
          "is_require": 0,
          "group_category": null,
          "selection": [
            {
              "id": 126,
              "content": "Tersedia",
              "question_id": 71
            },
            {
              "id": 127,
              "content": "Tidak",
              "question_id": 71
            }
          ],
          "child": []
        },
        {
          "id": 72,
          "content": "Kondisi",
          "type": "dropdown",
          "category": "POSM",
          "parent_id": 70,
          "is_parent": 0,
          "status": 1,
          "is_require": 0,
          "group_category": null,
          "selection": [
            {
              "id": 128,
              "content": "Layak",
              "question_id": 72
            },
            {
              "id": 129,
              "content": "Tidak Layak",
              "question_id": 72
            },
            {
              "id": 130,
              "content": "Ganti Baru",
              "question_id": 72
            }
          ],
          "child": []
        },
        {
          "id": 73,
          "content": "Aktifitas",
          "type": "dropdown",
          "category": "POSM",
          "parent_id": 70,
          "is_parent": 0,
          "status": 1,
          "is_require": 0,
          "group_category": null,
          "selection": [
            {
              "id": 131,
              "content": "Cek",
              "question_id": 73
            },
            {
              "id": 132,
              "content": "Pemasangan Baru",
              "question_id": 73
            }
          ],
          "child": []
        },
        {
          "id": 74,
          "content": "Jumlah Pemasangan",
          "type": "number",
          "category": "POSM",
          "parent_id": 70,
          "is_parent": 0,
          "status": 1,
          "is_require": 0,
          "group_category": null,
          "selection": [],
          "child": []
        },
        {
          "id": 75,
          "content": "Pengambilan Dokumentasi",
          "type": "images",
          "category": "POSM",
          "parent_id": 70,
          "is_parent": 0,
          "status": 1,
          "is_require": 0,
          "group_category": null,
          "selection": [],
          "child": []
        }
      ]
    },
    {
      "id": 76,
      "content": "POSM Downlight Eridani_Roll Sticker & Header (INDOOR)",
      "type": "group",
      "category": "POSM",
      "parent_id": null,
      "is_parent": 1,
      "status": 1,
      "is_require": 0,
      "group_category": "posm",
      "selection": [],
      "child": [
        {
          "id": 77,
          "content": "Ketersediaan",
          "type": "dropdown",
          "category": "POSM",
          "parent_id": 76,
          "is_parent": 0,
          "status": 1,
          "is_require": 0,
          "group_category": null,
          "selection": [
            {
              "id": 133,
              "content": "Tersedia",
              "question_id": 77
            },
            {
              "id": 134,
              "content": "Tidak",
              "question_id": 77
            }
          ],
          "child": []
        },
        {
          "id": 78,
          "content": "Kondisi",
          "type": "dropdown",
          "category": "POSM",
          "parent_id": 76,
          "is_parent": 0,
          "status": 1,
          "is_require": 0,
          "group_category": null,
          "selection": [
            {
              "id": 135,
              "content": "Layak",
              "question_id": 78
            },
            {
              "id": 136,
              "content": "Tidak Layak",
              "question_id": 78
            },
            {
              "id": 137,
              "content": "Ganti Baru",
              "question_id": 78
            }
          ],
          "child": []
        },
        {
          "id": 79,
          "content": "Aktifitas",
          "type": "dropdown",
          "category": "POSM",
          "parent_id": 76,
          "is_parent": 0,
          "status": 1,
          "is_require": 0,
          "group_category": null,
          "selection": [
            {
              "id": 138,
              "content": "Cek",
              "question_id": 79
            },
            {
              "id": 139,
              "content": "Pemasangan Baru",
              "question_id": 79
            }
          ],
          "child": []
        },
        {
          "id": 80,
          "content": "Jumlah Pemasangan",
          "type": "number",
          "category": "POSM",
          "parent_id": 76,
          "is_parent": 0,
          "status": 1,
          "is_require": 0,
          "group_category": null,
          "selection": [],
          "child": []
        },
        {
          "id": 81,
          "content": "Pengambilan Dokumentasi",
          "type": "images",
          "category": "POSM",
          "parent_id": 76,
          "is_parent": 0,
          "status": 1,
          "is_require": 0,
          "group_category": null,
          "selection": [],
          "child": []
        }
      ]
    },
    {
      "id": 82,
      "content": "POSM Interlaced Optics_Shopblind (OUTDOOR) Prioritas Toko LED Klub",
      "type": "group",
      "category": "POSM",
      "parent_id": null,
      "is_parent": 1,
      "status": 1,
      "is_require": 0,
      "group_category": "posm",
      "selection": [],
      "child": [
        {
          "id": 83,
          "content": "Ketersediaan",
          "type": "dropdown",
          "category": "POSM",
          "parent_id": 82,
          "is_parent": 0,
          "status": 1,
          "is_require": 0,
          "group_category": null,
          "selection": [
            {
              "id": 140,
              "content": "Tersedia",
              "question_id": 83
            },
            {
              "id": 141,
              "content": "Tidak",
              "question_id": 83
            }
          ],
          "child": []
        },
        {
          "id": 84,
          "content": "Kondisi",
          "type": "dropdown",
          "category": "POSM",
          "parent_id": 82,
          "is_parent": 0,
          "status": 1,
          "is_require": 0,
          "group_category": null,
          "selection": [
            {
              "id": 142,
              "content": "Layak",
              "question_id": 84
            },
            {
              "id": 143,
              "content": "Tidak Layak",
              "question_id": 84
            },
            {
              "id": 144,
              "content": "Ganti Baru",
              "question_id": 84
            }
          ],
          "child": []
        },
        {
          "id": 85,
          "content": "Aktifitas",
          "type": "dropdown",
          "category": "POSM",
          "parent_id": 82,
          "is_parent": 0,
          "status": 1,
          "is_require": 0,
          "group_category": null,
          "selection": [
            {
              "id": 145,
              "content": "Cek",
              "question_id": 85
            },
            {
              "id": 146,
              "content": "Pemasangan Baru",
              "question_id": 85
            }
          ],
          "child": []
        },
        {
          "id": 86,
          "content": "Jumlah Pemasangan",
          "type": "number",
          "category": "POSM",
          "parent_id": 82,
          "is_parent": 0,
          "status": 1,
          "is_require": 0,
          "group_category": null,
          "selection": [],
          "child": []
        },
        {
          "id": 87,
          "content": "Pengambilan Dokumentasi",
          "type": "images",
          "category": "POSM",
          "parent_id": 82,
          "is_parent": 0,
          "status": 1,
          "is_require": 0,
          "group_category": null,
          "selection": [],
          "child": []
        }
      ]
    },
    {
      "id": 88,
      "content": "POSM Interlaced Optics_Poster (INDOOR) Prioritas Toko LED Klub",
      "type": "group",
      "category": "POSM",
      "parent_id": null,
      "is_parent": 1,
      "status": 1,
      "is_require": 0,
      "group_category": "posm",
      "selection": [],
      "child": [
        {
          "id": 89,
          "content": "Ketersediaan",
          "type": "dropdown",
          "category": "POSM",
          "parent_id": 88,
          "is_parent": 0,
          "status": 1,
          "is_require": 0,
          "group_category": null,
          "selection": [
            {
              "id": 147,
              "content": "Tersedia",
              "question_id": 89
            },
            {
              "id": 148,
              "content": "Tidak",
              "question_id": 89
            }
          ],
          "child": []
        },
        {
          "id": 90,
          "content": "Kondisi",
          "type": "dropdown",
          "category": "POSM",
          "parent_id": 88,
          "is_parent": 0,
          "status": 1,
          "is_require": 0,
          "group_category": null,
          "selection": [
            {
              "id": 149,
              "content": "Layak",
              "question_id": 90
            },
            {
              "id": 150,
              "content": "Tidak Layak",
              "question_id": 90
            },
            {
              "id": 151,
              "content": "Ganti Baru",
              "question_id": 90
            }
          ],
          "child": []
        },
        {
          "id": 91,
          "content": "Aktifitas",
          "type": "dropdown",
          "category": "POSM",
          "parent_id": 88,
          "is_parent": 0,
          "status": 1,
          "is_require": 0,
          "group_category": null,
          "selection": [
            {
              "id": 152,
              "content": "Cek",
              "question_id": 91
            },
            {
              "id": 153,
              "content": "Pemasangan Baru",
              "question_id": 91
            }
          ],
          "child": []
        },
        {
          "id": 92,
          "content": "Jumlah Pemasangan",
          "type": "number",
          "category": "POSM",
          "parent_id": 88,
          "is_parent": 0,
          "status": 1,
          "is_require": 0,
          "group_category": null,
          "selection": [],
          "child": []
        },
        {
          "id": 93,
          "content": "Pengambilan Dokumentasi",
          "type": "images",
          "category": "POSM",
          "parent_id": 88,
          "is_parent": 0,
          "status": 1,
          "is_require": 0,
          "group_category": null,
          "selection": [],
          "child": []
        }
      ]
    },
    {
      "id": 94,
      "content": "POSM Interlaced Optics_Flagchain (OUTDOOR) Prioritas Toko LED Klub",
      "type": "group",
      "category": "POSM",
      "parent_id": null,
      "is_parent": 1,
      "status": 1,
      "is_require": 0,
      "group_category": "posm",
      "selection": [],
      "child": [
        {
          "id": 95,
          "content": "Ketersediaan",
          "type": "dropdown",
          "category": "POSM",
          "parent_id": 94,
          "is_parent": 0,
          "status": 1,
          "is_require": 0,
          "group_category": null,
          "selection": [
            {
              "id": 154,
              "content": "Tersedia",
              "question_id": 95
            },
            {
              "id": 155,
              "content": "Tidak",
              "question_id": 95
            }
          ],
          "child": []
        },
        {
          "id": 96,
          "content": "Kondisi",
          "type": "dropdown",
          "category": "POSM",
          "parent_id": 94,
          "is_parent": 0,
          "status": 1,
          "is_require": 0,
          "group_category": null,
          "selection": [
            {
              "id": 156,
              "content": "Layak",
              "question_id": 96
            },
            {
              "id": 157,
              "content": "Tidak Layak",
              "question_id": 96
            },
            {
              "id": 158,
              "content": "Ganti Baru",
              "question_id": 96
            }
          ],
          "child": []
        },
        {
          "id": 97,
          "content": "Aktifitas",
          "type": "dropdown",
          "category": "POSM",
          "parent_id": 94,
          "is_parent": 0,
          "status": 1,
          "is_require": 0,
          "group_category": null,
          "selection": [
            {
              "id": 159,
              "content": "Cek",
              "question_id": 97
            },
            {
              "id": 160,
              "content": "Pemasangan Baru",
              "question_id": 97
            }
          ],
          "child": []
        },
        {
          "id": 98,
          "content": "Jumlah Pemasangan",
          "type": "number",
          "category": "POSM",
          "parent_id": 94,
          "is_parent": 0,
          "status": 1,
          "is_require": 0,
          "group_category": null,
          "selection": [],
          "child": []
        },
        {
          "id": 99,
          "content": "Pengambilan Dokumentasi",
          "type": "images",
          "category": "POSM",
          "parent_id": 94,
          "is_parent": 0,
          "status": 1,
          "is_require": 0,
          "group_category": null,
          "selection": [],
          "child": []
        }
      ]
    },
    {
      "id": 100,
      "content": "POSM Interlaced Optics_Roll Sticker (INDOOR) Prioritas Toko LED Klub",
      "type": "group",
      "category": "POSM",
      "parent_id": null,
      "is_parent": 1,
      "status": 1,
      "is_require": 0,
      "group_category": "posm",
      "selection": [],
      "child": [
        {
          "id": 101,
          "content": "Ketersediaan",
          "type": "dropdown",
          "category": "POSM",
          "parent_id": 100,
          "is_parent": 0,
          "status": 1,
          "is_require": 0,
          "group_category": null,
          "selection": [
            {
              "id": 161,
              "content": "Tersedia",
              "question_id": 101
            },
            {
              "id": 162,
              "content": "Tidak",
              "question_id": 101
            }
          ],
          "child": []
        },
        {
          "id": 102,
          "content": "Kondisi",
          "type": "dropdown",
          "category": "POSM",
          "parent_id": 100,
          "is_parent": 0,
          "status": 1,
          "is_require": 0,
          "group_category": null,
          "selection": [
            {
              "id": 163,
              "content": "Layak",
              "question_id": 102
            },
            {
              "id": 164,
              "content": "Tidak Layak",
              "question_id": 102
            },
            {
              "id": 165,
              "content": "Ganti Baru",
              "question_id": 102
            }
          ],
          "child": []
        },
        {
          "id": 103,
          "content": "Aktifitas",
          "type": "dropdown",
          "category": "POSM",
          "parent_id": 100,
          "is_parent": 0,
          "status": 1,
          "is_require": 0,
          "group_category": null,
          "selection": [
            {
              "id": 166,
              "content": "Cek",
              "question_id": 103
            },
            {
              "id": 167,
              "content": "Pemasangan Baru",
              "question_id": 103
            }
          ],
          "child": []
        },
        {
          "id": 104,
          "content": "Jumlah Pemasangan",
          "type": "number",
          "category": "POSM",
          "parent_id": 100,
          "is_parent": 0,
          "status": 1,
          "is_require": 0,
          "group_category": null,
          "selection": [],
          "child": []
        },
        {
          "id": 105,
          "content": "Pengambilan Dokumentasi",
          "type": "images",
          "category": "POSM",
          "parent_id": 100,
          "is_parent": 0,
          "status": 1,
          "is_require": 0,
          "group_category": null,
          "selection": [],
          "child": []
        }
      ]
    }
  ]
}